<?xml version="1.0" encoding="utf-8"?>
<!-- Generator: Adobe Illustrator 21.0.0, SVG Export Plug-In . SVG Version: 6.00 Build 0)  -->
<svg version="1.1" id="Layer_1" xmlns="http://www.w3.org/2000/svg" xmlns:xlink="http://www.w3.org/1999/xlink" x="0px" y="0px"
	 viewBox="0 0 56 56" style="enable-background:new 0 0 56 56;" xml:space="preserve">
<style type="text/css">
	.st0{fill:#5CA2B5;}
</style>
<g>
	<path class="st0" d="M39.3,43h-0.7c-1.6,0-2.9-1.1-3.2-2.7c-2.3,0.2-4.8,0.1-7.2,0.1h-0.4h-0.4c-2.5,0-5,0-7.4-0.1
		c-0.3,1.5-1.6,2.7-3.2,2.7h-0.7c-1.8,0-3.3-1.5-3.3-3.3v-0.9c-5.3-2.2-8.3-6.9-9.2-14.6C2,24,0.8,22.7,0.7,21c0-0.3,0-0.9,0-1.3
		c0-0.7,0.2-1.2,0.8-1.6c0,0,0.1-0.2,0.4-0.9c0.2-0.6,0.8-1.1,1.5-1.1h49c0.7,0,1.2,0.4,1.5,1.1c0.2,0.5,0.3,0.9,0.4,1
		c0.4,0.4,0.6,0.8,0.7,1.6l0,0c0.1,1.6-0.3,2.9-1.1,3.7c-0.4,0.4-0.9,0.7-1.8,0.9c-0.9,7.7-4,12.4-9.5,14.6v0.8
		C42.6,41.6,41.1,43,39.3,43z M36.9,37.2c0.4,0,0.7,0.1,1,0.4c0.3,0.3,0.5,0.7,0.5,1.1v1.1c0,0.1,0.1,0.2,0.2,0.2h0.7
		c0.1,0,0.2-0.1,0.2-0.2v-1.9c0-0.7,0.4-1.3,1.1-1.5c3.5-1.1,7.7-3.7,8.5-13.6c0.1-0.7,0.6-1.3,1.4-1.4c0.2,0,0.4,0,0.6,0
		c0.3,0,0.5,0,0.6-0.1s0.2-0.4,0.2-1.1c-0.2-0.2-0.4-0.5-0.6-0.9H4.5c-0.2,0.4-0.4,0.7-0.6,0.9c0,0.3,0,0.6,0,0.8
		c0,0.2,0.1,0.2,0.1,0.3h0.6c0.2,0,0.4,0,0.6,0c0.8,0,1.4,0.6,1.5,1.4c0.8,9.9,4.9,12.5,8.3,13.7c0.6,0.2,1,0.8,1,1.5v2
		c0,0.1,0.1,0.2,0.2,0.2h0.7c0.1,0,0.2-0.1,0.2-0.2v-1.1c0-0.4,0.2-0.9,0.5-1.1c0.3-0.3,0.8-0.4,1.2-0.4c2.7,0.3,5.6,0.3,8.7,0.3
		h0.4h0.4c3,0,5.8,0.1,8.5-0.2C36.8,37.2,36.9,37.2,36.9,37.2z M53.5,19.9H52c0,0,0,0,0,0.1L53.5,19.9z"/>
</g>
</svg>
