<?xml version="1.0" encoding="utf-8"?>
<!-- Generator: Adobe Illustrator 21.0.0, SVG Export Plug-In . SVG Version: 6.00 Build 0)  -->
<svg version="1.1" id="Layer_1" xmlns="http://www.w3.org/2000/svg" xmlns:xlink="http://www.w3.org/1999/xlink" x="0px" y="0px"
	 viewBox="0 0 56 56" style="enable-background:new 0 0 56 56;" xml:space="preserve">
<style type="text/css">
	.st0{fill:#5CA2B5;}
</style>
<g>
	<path class="st0" d="M51.9,28.8l1.5-0.1L51.9,28.8L51.9,28.8z"/>
	<path class="st0" d="M54.3,27c-0.1-0.1-0.3-0.4-0.4-1c-0.3-0.6-0.9-1-1.5-1h-41c0,0.1,0,0.3,0,0.4s0,0.1,0,0.2H8.8
		c0-0.2,0-0.4,0-0.6l0,0H3.3c-0.7,0-1.3,0.4-1.5,1c-0.2,0.7-0.4,0.9-0.4,0.9c-0.5,0.4-0.7,0.9-0.8,1.7c0,0.3,0,1,0,1.3
		c0.1,1.7,1.2,3.1,2.9,3.2c0.9,7.7,3.9,12.4,9.2,14.6v0.9c0,1.8,1.5,3.3,3.3,3.3h0.7c1.6,0,2.9-1.2,3.2-2.7c2.4,0.2,5,0.2,7.5,0.1
		h0.3h0.4c2.4,0,4.8,0,7.2-0.1c0.3,1.5,1.6,2.7,3.2,2.7h0.7c1.8,0,3.3-1.5,3.3-3.3v-0.8C48,45.6,51,40.9,52,33.2
		c0.9-0.1,1.4-0.5,1.8-0.9c0.8-0.8,1.2-2.1,1.1-3.7C54.9,27.8,54.7,27.4,54.3,27z M51.7,30.1c0,0-0.2,0.1-0.5,0.1
		c-0.2,0-0.4,0-0.7,0c-0.7,0.1-1.3,0.7-1.4,1.4c-0.9,10-5,12.5-8.6,13.7c-0.6,0.2-1.1,0.8-1.1,1.5v1.9c0,0.1-0.1,0.2-0.2,0.2h-0.7
		c-0.1,0-0.2-0.1-0.2-0.2v-1.1c0-0.4-0.2-0.9-0.5-1.1c-0.3-0.3-0.6-0.4-1-0.4c-0.1,0-0.1,0-0.2,0c-2.6,0.3-5.5,0.3-8.5,0.2h-0.4
		h-0.4c-3.1,0-6,0.1-8.8-0.3c-0.4-0.1-0.9,0.1-1.2,0.4c-0.3,0.3-0.5,0.7-0.5,1.2v1.1c0,0.1-0.1,0.2-0.2,0.2H16
		c-0.1,0-0.2-0.1-0.2-0.2v-2c0-0.7-0.4-1.2-1-1.5c-3.4-1.2-7.5-3.8-8.3-13.7c-0.1-0.8-0.7-1.4-1.5-1.4c-0.2,0-0.4,0-0.6,0H3.8
		c0,0-0.1-0.1-0.1-0.3c0-0.2,0-0.5,0-0.8c0.2-0.2,0.4-0.5,0.6-0.9h47c0.2,0.4,0.4,0.7,0.6,0.9C51.9,29.7,51.8,30,51.7,30.1z
		 M51.9,28.8L51.9,28.8l1.5-0.1L51.9,28.8z"/>
	<path class="st0" d="M8.8,25.6h2.6c0-0.1,0-0.1,0-0.2s0-0.3,0-0.4c0-5.5,0-10.9,0-16.4c0-0.3,0-0.5,0.1-0.8
		c0.3-1.9,2.5-3.2,4.2-2.4c-0.4,1.4-0.2,2.7,0.9,3.8C18.3,7.4,20,5.7,21.7,4c-0.9-1-2.4-1.3-3.8-0.9c-0.2,0.1-0.6,0.1-0.8,0
		c-1.5-0.6-2.9-0.7-4.4-0.2c-2.4,0.9-3.9,3-3.9,5.7c0,5.4,0,10.9,0,16.3l0,0C8.8,25.2,8.8,25.4,8.8,25.6z"/>
	<path class="st0" d="M19.8,9c1.2,1.2,2.4,2.4,3.6,3.6c0.6,0.6,1.2,0.6,1.8,0c0.6-0.6,0.6-1.2,0-1.8c-1-1-2.1-2.1-3.1-3.1
		c-0.2-0.2-0.3-0.4-0.4-0.6C21,7.8,20.4,8.3,19.8,9z"/>
	<path class="st0" d="M17.8,10.8c-0.7,0.7-1.3,1.3-2,2c-0.1,0.1-0.1,0.2-0.1,0.4c0.3,1.2,0.6,2.4,1,3.6c0.2,0.7,0.8,0.9,1.6,0.7
		c0.7-0.2,1-0.8,0.9-1.4c-0.1-0.5-0.2-0.9-0.4-1.4C18.5,13.4,18.2,12.1,17.8,10.8z"/>
	<path class="st0" d="M28.6,6.5c0.8,0.2,1.3-0.1,1.5-0.9C30.3,4.8,30,4.2,29.4,4c-1.2-0.3-2.4-0.6-3.6-0.9c-0.1,0-0.3,0-0.4,0.1
		c-0.6,0.6-1.3,1.3-2,2C24,5.3,24.5,5.4,25,5.5C26.2,5.9,27.4,6.2,28.6,6.5z"/>
</g>
</svg>
