<?xml version="1.0" encoding="utf-8"?>
<!-- Generator: Adobe Illustrator 21.0.0, SVG Export Plug-In . SVG Version: 6.00 Build 0)  -->
<svg version="1.1" id="Layer_1" xmlns="http://www.w3.org/2000/svg" xmlns:xlink="http://www.w3.org/1999/xlink" x="0px" y="0px"
	 viewBox="0 0 56 56" enable-background="new 0 0 56 56" xml:space="preserve">
<path fill="#5CA2B5" d="M49.7,18.4H32.4L41.3,3c0.5-0.9,0.2-2-0.7-2.5s-2-0.2-2.5,0.7l-9.5,16.5c-0.1,0.2-0.2,0.5-0.2,0.7H26
	c0-0.2-0.1-0.4-0.2-0.6l-5-10c-0.5-0.9-1.6-1.3-2.5-0.8S17,8.6,17.5,9.5l4.4,9H6.4c-1.1,0-2,0.9-2,2v33c0,1.1,0.9,2,2,2h43.2
	c1.1,0,2-0.9,2-2v-33C51.6,19.3,50.7,18.4,49.7,18.4z M39.8,51.5H8.4V22.3h31.4V51.5z M45.4,37.3c-1.6,0-2.9-1.3-2.9-2.9
	s1.3-2.9,2.9-2.9s2.9,1.3,2.9,2.9S47,37.3,45.4,37.3z M45.4,28.6c-1.6,0-2.9-1.3-2.9-2.9s1.3-2.9,2.9-2.9s2.9,1.3,2.9,2.9
	C48.3,27.2,47,28.6,45.4,28.6z"/>
</svg>
